<?xml version="1.0" encoding="UTF-8" standalone="no"?>
<!-- Created with Inkscape (http://www.inkscape.org/) -->
<svg id="svg2" xmlns:rdf="http://www.w3.org/1999/02/22-rdf-syntax-ns#" xmlns="http://www.w3.org/2000/svg" height="50" width="100" version="1.0" xmlns:cc="http://creativecommons.org/ns#" xmlns:dc="http://purl.org/dc/elements/1.1/">
 <metadata id="metadata7">
  <rdf:RDF>
   <cc:Work rdf:about="">
    <dc:format>image/svg+xml</dc:format>
    <dc:type rdf:resource="http://purl.org/dc/dcmitype/StillImage"/>
   </cc:Work>
  </rdf:RDF>
 </metadata>
 <g id="layer1">
  <path id="path3059" d="m79.157 25h15.843" stroke="#000" stroke-width="2" fill="none"/>
  <path id="path3061" d="m29.043 25h-24" stroke="#000" stroke-width="2" fill="none"/>
  <path id="path2638" d="m28.969 2.5938v2.4062 40 2.406l2.156-1.062 41.031-20v-2.688l-41.031-20-2.156-1.0622zm3 4.8124l36.125 17.594-36.125 17.594v-35.188z"/>
  <path id="path2671" d="m80 25a4 4 0 1 1 -8 0 4 4 0 1 1 8 0z" transform="translate(-1)" stroke="#000" stroke-width="3" fill="none"/>
 </g>
</svg>
